List, Query, Manipulate System Processes • ps
…
Listing all processes

ps_pids() returns all process ids on the system. This can be useful to iterate over all processes.

library(ps)
ps_pids()[1:20]

##  [1]  0  1 51 52 55 56 57 59 62 63 64 65 70 74 76 77 82 83 85 87

ps() returns a data frame (tibble if you have the tibble package available), with data about each process. It contains a handle to each process, in the ps_handle column, you can use these to perform more queries on the processes.

ps()

## # A tibble: 386 x 11
##      pid  ppid name  username status     user  system     rss     vms created             ps_handle
##  * <int> <int> <chr> <chr>    <chr>     <dbl>   <dbl>   <dbl>   <dbl> <dttm>              <I(list)>
##  1 98737     1 quic… gaborcs… runni…   0.0425  0.0200  2.48e7  3.09e9 2018-07-24 09:41:40 <S3: ps_…
##  2 98327     1 mdwo… _spotli… runni…  NA      NA      NA      NA      2018-07-24 09:39:02 <S3: ps_…
##  3 98318  3718 Goog… gaborcs… runni…   0.0650  0.0276  4.62e7  3.36e9 2018-07-24 09:37:30 <S3: ps_…
##  4 96820  3718 Goog… gaborcs… runni…   0.114   0.0618  5.14e7  3.38e9 2018-07-24 09:10:29 <S3: ps_…
##  5 96817  3718 Goog… gaborcs… runni…   0.953   0.163   1.14e8  3.56e9 2018-07-24 09:09:42 <S3: ps_…
##  6 96816  3718 Goog… gaborcs… runni…   1.58    0.265   1.45e8  3.66e9 2018-07-24 09:09:37 <S3: ps_…
##  7 96809  3718 Goog… gaborcs… runni…   0.865   0.158   1.41e8  3.59e9 2018-07-24 09:09:34 <S3: ps_…
##  8 96680  3718 Goog… gaborcs… runni…  12.5     1.86    2.02e8  3.54e9 2018-07-24 08:41:27 <S3: ps_…
##  9 96679  3718 Goog… gaborcs… runni…  26.5     5.92    1.48e8  3.58e9 2018-07-24 08:41:27 <S3: ps_…
## 10 96678  3718 Goog… gaborcs… runni… 171.     16.1     2.72e8  3.70e9 2018-07-24 08:41:26 <S3: ps_…
## # ... with 376 more rows
…
Filtering and sorting processes

Process name ending with “sh”:

ps() %>%
  filter(grepl("sh$", name))

## # A tibble: 21 x 11
##      pid  ppid name  username  status     user  system    rss    vms created             ps_handle 
##    <int> <int> <chr> <chr>     <chr>     <dbl>   <dbl>  <dbl>  <dbl> <dttm>              <I(list)> 
##  1 94582 94576 zsh   gaborcsa… running 0.00595 0.00875 8.19e3 2.52e9 2018-07-23 21:06:28 <S3: ps_h…
##  2 94576 94575 zsh   gaborcsa… running 0.243   0.111   1.64e4 2.52e9 2018-07-23 21:06:28 <S3: ps_h…
##  3 93603 93597 zsh   gaborcsa… running 0.00659 0.00973 8.19e3 2.52e9 2018-07-23 17:44:33 <S3: ps_h…
##  4 93597 93596 zsh   gaborcsa… running 0.303   0.133   1.64e4 2.52e9 2018-07-23 17:44:33 <S3: ps_h…
##  5 93482 93476 zsh   gaborcsa… running 0.00524 0.00804 8.19e3 2.52e9 2018-07-23 17:40:47 <S3: ps_h…
##  6 93476 93475 zsh   gaborcsa… running 0.384   0.149   1.64e4 2.52e9 2018-07-23 17:40:46 <S3: ps_h…
##  7 90291 90285 zsh   gaborcsa… running 0.0118  0.0175  8.19e3 2.52e9 2018-07-23 16:15:32 <S3: ps_h…
##  8 90285 90284 zsh   gaborcsa… running 0.256   0.119   1.64e4 2.52e9 2018-07-23 16:15:32 <S3: ps_h…
##  9 90057 90051 zsh   gaborcsa… running 0.0290  0.0514  1.27e6 2.52e9 2018-07-23 16:14:26 <S3: ps_h…
## 10 90051 90050 zsh   gaborcsa… running 0.609   0.281   7.11e6 2.52e9 2018-07-23 16:14:26 <S3: ps_h…
## # ... with 11 more rows

Processes owned by user:

ps() %>%
  filter(username == Sys.info()[["user"]]) %>%
  select(pid, name)

## # A tibble: 258 x 2
##      pid name                
##    <int> <chr>               
##  1 98737 quicklookd          
##  2 98318 Google Chrome Helper
##  3 96820 Google Chrome Helper
##  4 96817 Google Chrome Helper
##  5 96816 Google Chrome Helper
##  6 96809 Google Chrome Helper
##  7 96680 Google Chrome Helper
##  8 96679 Google Chrome Helper
##  9 96678 Google Chrome Helper
## 10 96677 Google Chrome Helper
## # ... with 248 more rows
…
