…
    ##  [1]  0  1 51 52 55 56 57 59 62 63 64 65 70 74 76 77 82 83 85 87

`ps()` returns a data frame (tibble if you have the tibble package
available), with data about each process. It contains a handle to each
process, in the `ps_handle` column, you can use these to perform more
queries on the processes.

``` r
ps()
```

    ## # A tibble: 420 x 11
    ##      pid  ppid name   username status    user  system     rss     vms created             ps_handle
    ##  * <int> <int> <chr>  <chr>    <chr>    <dbl>   <dbl>   <dbl>   <dbl> <dttm>              <I(list)>
    ##  1 91883     1 quick… gaborcs… runni…  0.0897  0.0347  2.49e7  3.09e9 2018-07-21 22:56:54 <S3: ps_…
    ##  2 91856  3718 Googl… gaborcs… runni…  0.0741  0.0285  4.38e7  3.36e9 2018-07-21 22:55:55 <S3: ps_…
    ##  3 91662  3718 Googl… gaborcs… runni…  2.63    0.508   9.91e7  3.54e9 2018-07-21 22:54:53 <S3: ps_…
    ##  4 91190  3718 Googl… gaborcs… runni…  0.499   0.0986  1.05e8  3.55e9 2018-07-21 22:50:19 <S3: ps_…
    ##  5 91188  3718 Googl… gaborcs… runni…  1.69    0.406   1.22e8  3.47e9 2018-07-21 22:50:15 <S3: ps_…
    ##  6 91148  3718 Googl… gaborcs… runni…  1.25    0.219   9.79e7  3.54e9 2018-07-21 22:49:49 <S3: ps_…
    ##  7 90113     1 netbi… _netbios runni… NA      NA      NA      NA      2018-07-21 22:27:22 <S3: ps_…
    ##  8 89609     1 mdwor… gaborcs… runni…  1.08    0.231   8.39e7  2.58e9 2018-07-21 22:14:50 <S3: ps_…
    ##  9 89604     1 mdwor… gaborcs… runni…  1.82    0.277   8.46e7  2.58e9 2018-07-21 22:13:30 <S3: ps_…
    ## 10 89599     1 mdwor… gaborcs… runni…  1.67    0.264   8.25e7  2.58e9 2018-07-21 22:11:03 <S3: ps_…
    ## # ... with 410 more rows
…
### Filtering and sorting processes

Process name ending with “sh”:

``` r
ps() %>%
  filter(grepl("sh$", name))
```

    ## # A tibble: 37 x 11
    ##      pid  ppid name  username  status     user  system    rss    vms created             ps_handle 
    ##    <int> <int> <chr> <chr>     <chr>     <dbl>   <dbl>  <dbl>  <dbl> <dttm>              <I(list)> 
    ##  1 74523 74516 zsh   gaborcsa… running 0.00409 0.00578 1.16e6 2.52e9 2018-07-20 13:36:18 <S3: ps_h…
    ##  2 74516 74515 zsh   gaborcsa… running 0.216   0.137   2.22e6 2.52e9 2018-07-20 13:36:17 <S3: ps_h…
    ##  3 42536 42530 zsh   gaborcsa… running 0.0388  0.0811  1.30e6 2.53e9 2018-07-19 16:34:33 <S3: ps_h…
    ##  4 42530 42529 zsh   gaborcsa… running 0.609   0.281   7.17e6 2.53e9 2018-07-19 16:34:33 <S3: ps_h…
    ##  5 41855 41849 zsh   gaborcsa… running 0.00936 0.0187  9.01e4 2.52e9 2018-07-19 16:30:40 <S3: ps_h…
    ##  6 41849 41848 zsh   gaborcsa… running 0.331   0.129   1.19e6 2.52e9 2018-07-19 16:30:40 <S3: ps_h…
    ##  7 37457 37451 zsh   gaborcsa… running 0.0182  0.0328  7.29e5 2.52e9 2018-07-19 12:58:12 <S3: ps_h…
    ##  8 37451 37450 zsh   gaborcsa… running 0.415   0.204   1.34e6 2.52e9 2018-07-19 12:58:12 <S3: ps_h…
    ##  9 37159 37153 zsh   gaborcsa… running 0.0282  0.0464  9.01e4 2.52e9 2018-07-19 12:57:39 <S3: ps_h…
    ## 10 37153 37152 zsh   gaborcsa… running 0.749   0.312   7.91e5 2.52e9 2018-07-19 12:57:38 <S3: ps_h…
    ## # ... with 27 more rows

Processes owned by user:

``` r
ps() %>%
  filter(username == Sys.info()[["user"]]) %>%
  select(pid, name)
```

    ## # A tibble: 294 x 2
    ##      pid name                
    ##    <int> <chr>               
    ##  1 91883 quicklookd          
    ##  2 91856 Google Chrome Helper
    ##  3 91662 Google Chrome Helper
    ##  4 91190 Google Chrome Helper
    ##  5 91188 Google Chrome Helper
    ##  6 91148 Google Chrome Helper
    ##  7 89609 mdworker            
    ##  8 89604 mdworker            
    ##  9 89599 mdworker            
    ## 10 89598 mdworker            
    ## # ... with 284 more rows
…
