List, Query, Manipulate System Processes • ps
…
Listing all processes

ps_pids() returns all process ids on the system. This can be useful to iterate over all processes.

library(ps)
ps_pids()[1:20]

##  [1]   0   1 497 498 500 501 502 505 506 508 509 512 514 515 516 518 522 523 524 525

ps() returns a data frame (tibble if you have the tibble package available), with data about each process. It contains a handle to each process, in the ps_handle column, you can use these to perform more queries on the processes.

ps()

## # A tibble: 520 × 11
##      pid  ppid name    username status    user  system    rss     vms created             ps_handle 
##  * <int> <int> <chr>   <chr>    <chr>    <dbl>   <dbl>  <dbl>   <dbl> <dttm>              <I<list>> 
##  1 56528 68177 R       gaborcs… runni… 0.00993 1.54e-3 1.42e8 4.19e11 2022-03-02 13:30:10 <ps_handl>
##  2 56305 68005 R       gaborcs… runni… 0.0153  1.90e-3 1.39e8 4.19e11 2022-03-02 13:28:54 <ps_handl>
##  3 54044  9722 Google… gaborcs… runni… 0.00121 5.00e-4 4.15e7 4.61e11 2022-03-02 13:16:37 <ps_handl>
##  4 54028  9722 Google… gaborcs… runni… 0.00557 1.30e-3 8.59e7 4.61e11 2022-03-02 13:15:06 <ps_handl>
##  5 54027  9722 Google… gaborcs… runni… 0.00585 1.37e-3 8.35e7 4.61e11 2022-03-02 13:15:05 <ps_handl>
##  6 54026  9722 Google… gaborcs… runni… 0.0294  4.42e-3 1.27e8 4.61e11 2022-03-02 13:15:04 <ps_handl>
##  7 54025  9722 Google… gaborcs… runni… 0.00587 1.82e-3 7.81e7 4.61e11 2022-03-02 13:15:04 <ps_handl>
##  8 54024  9722 Google… gaborcs… runni… 0.0271  1.18e-2 8.72e7 4.61e11 2022-03-02 13:15:04 <ps_handl>
##  9 54023  9722 Google… gaborcs… runni… 0.00818 1.76e-3 9.21e7 4.61e11 2022-03-02 13:15:04 <ps_handl>
## 10 54022  9722 Google… gaborcs… runni… 0.00794 1.84e-3 9.35e7 4.61e11 2022-03-02 13:15:04 <ps_handl>
## # … with 510 more rows
…
Processes owned by user:

ps() %>%
  filter(username == Sys.info()[["user"]]) %>%
  select(pid, name)

## # A tibble: 334 × 2
##      pid name                           
##    <int> <chr>                          
##  1 56528 R                              
##  2 56305 R                              
##  3 54044 Google Chrome Helper (Renderer)
##  4 54028 Google Chrome Helper (Renderer)
##  5 54027 Google Chrome Helper (Renderer)
##  6 54026 Google Chrome Helper (Renderer)
##  7 54025 Google Chrome Helper (Renderer)
##  8 54024 Google Chrome Helper (Renderer)
##  9 54023 Google Chrome Helper (Renderer)
## 10 54022 Google Chrome Helper (Renderer)
## # … with 324 more rows

Processes consuming more than 100MB of memory:

ps() %>%
  filter(rss > 100 * 1024 * 1024)

## # A tibble: 24 × 11
##      pid  ppid name     username status   user  system    rss     vms created             ps_handle 
##    <int> <int> <chr>    <chr>    <chr>   <dbl>   <dbl>  <dbl>   <dbl> <dttm>              <I<list>> 
##  1 56528 68177 R        gaborcs… runni… 0.0194 0.00651 1.69e8 4.19e11 2022-03-02 13:30:10 <ps_handl>
##  2 56305 68005 R        gaborcs… runni… 0.0153 0.00191 1.39e8 4.19e11 2022-03-02 13:28:54 <ps_handl>
##  3 54026  9722 Google … gaborcs… runni… 0.0294 0.00442 1.27e8 4.61e11 2022-03-02 13:15:04 <ps_handl>
##  4 54021  9722 Google … gaborcs… runni… 0.0788 0.0114  2.24e8 4.62e11 2022-03-02 13:15:03 <ps_handl>
##  5 54018  9722 Google … gaborcs… runni… 0.120  0.0192  1.46e8 4.61e11 2022-03-02 13:14:53 <ps_handl>
##  6 54017  9722 Google … gaborcs… runni… 0.0496 0.0133  1.34e8 4.61e11 2022-03-02 13:14:53 <ps_handl>
##  7 54014  9722 Google … gaborcs… runni… 0.0147 0.00493 1.13e8 4.61e11 2022-03-02 13:14:52 <ps_handl>
##  8 50899     1 Amazon … gaborcs… runni… 0.404  0.0849  2.41e8 3.67e10 2022-03-02 13:04:19 <ps_handl>
##  9 18649  9722 Google … gaborcs… runni… 0.0719 0.00914 1.57e8 4.61e11 2022-03-02 11:56:06 <ps_handl>
## 10 68671 68592 R        gaborcs… runni… 0.755  0.0170  2.15e8 4.19e11 2022-03-02 10:47:28 <ps_handl>
## # … with 14 more rows
…
