List, Query, Manipulate System Processes • ps
…
Listing all processes

ps_pids() returns all process ids on the system. This can be useful to iterate over all processes.

library(ps)
ps_pids()[1:20]

##  [1]  0  1 48 49 51 52 53 55 58 59 60 61 66 70 72 73 78 79 81 83

ps() returns a data frame (tibble if you have the tibble package available), with data about each process. It contains a handle to each process, in the ps_handle column, you can use these to perform more queries on the processes.

ps()

## # A tibble: 467 x 11
##      pid  ppid name   username status    user  system     rss     vms created             ps_handle
##  * <int> <int> <chr>  <chr>    <chr>    <dbl>   <dbl>   <dbl>   <dbl> <dttm>              <I(list)>
##  1 15618 15603 R      gaborcs… runni…  0.743   0.138   1.20e8  2.73e9 2018-11-07 09:38:47 <S3: ps_…
##  2 15603 69354 R      gaborcs… runni…  1.80    0.227   1.21e8  2.69e9 2018-11-07 09:38:42 <S3: ps_…
##  3 15404     1 quick… gaborcs… runni…  0.0578  0.0362  2.86e7  3.09e9 2018-11-07 09:37:38 <S3: ps_…
##  4 15403  9730 Googl… gaborcs… runni…  0.180   0.0634  6.72e7  3.00e9 2018-11-07 09:36:59 <S3: ps_…
##  5 15402  9730 Googl… gaborcs… runni…  0.0836  0.0452  4.94e7  2.97e9 2018-11-07 09:36:58 <S3: ps_…
##  6 15364 15363 docke… gaborcs… runni…  2.05    0.277   3.06e7  2.58e9 2018-11-07 09:34:41 <S3: ps_…
##  7 15363 89645 docke… gaborcs… runni…  0.0482  0.0354  7.84e6  2.53e9 2018-11-07 09:34:41 <S3: ps_…
##  8 15278  9730 Googl… gaborcs… runni…  4.13    1.32    4.80e7  2.80e9 2018-11-07 09:33:51 <S3: ps_…
##  9 15274  9730 Googl… gaborcs… runni… 13.6     1.99    2.29e8  3.22e9 2018-11-07 09:33:43 <S3: ps_…
## 10 15272     1 backu… root     runni… NA      NA      NA      NA      2018-11-07 09:33:24 <S3: ps_…
## # ... with 457 more rows
…
Filtering and sorting processes

Process name ending with “sh”:

ps() %>%
  filter(grepl("sh$", name))

## # A tibble: 44 x 11
##      pid  ppid name  username  status     user  system    rss    vms created             ps_handle 
##    <int> <int> <chr> <chr>     <chr>     <dbl>   <dbl>  <dbl>  <dbl> <dttm>              <I(list)> 
##  1 12161 12155 zsh   gaborcsa… running 0.00637 0.0125  1.16e6 2.53e9 2018-11-06 16:00:56 <S3: ps_h…
##  2 12155 12154 zsh   gaborcsa… running 0.296   0.186   2.23e6 2.53e9 2018-11-06 16:00:56 <S3: ps_h…
##  3  3590  3574 zsh   gaborcsa… running 0.00649 0.0113  1.16e6 2.53e9 2018-11-06 14:11:36 <S3: ps_h…
##  4  3574  3571 zsh   gaborcsa… running 0.267   0.126   2.22e6 2.53e9 2018-11-06 14:11:36 <S3: ps_h…
##  5  3337  3331 zsh   gaborcsa… running 0.00403 0.00615 1.16e6 2.53e9 2018-11-06 14:11:26 <S3: ps_h…
##  6  3331  3330 zsh   gaborcsa… running 0.230   0.109   2.22e6 2.53e9 2018-11-06 14:11:25 <S3: ps_h…
##  7  1283  1277 zsh   gaborcsa… running 0.0353  0.0771  1.16e6 2.53e9 2018-11-06 13:58:53 <S3: ps_h…
##  8  1277  1276 zsh   gaborcsa… running 0.749   0.411   2.23e6 2.53e9 2018-11-06 13:58:53 <S3: ps_h…
##  9 71793 71787 zsh   gaborcsa… running 0.00449 0.00680 1.16e6 2.53e9 2018-11-06 09:42:47 <S3: ps_h…
## 10 71787 71786 zsh   gaborcsa… running 0.229   0.111   2.22e6 2.53e9 2018-11-06 09:42:46 <S3: ps_h…
## # ... with 34 more rows

Processes owned by user:

ps() %>%
  filter(username == Sys.info()[["user"]]) %>%
  select(pid, name)

## # A tibble: 330 x 2
##      pid name                
##    <int> <chr>               
##  1 15618 R                   
##  2 15603 R                   
##  3 15404 quicklookd          
##  4 15402 Google Chrome Helper
##  5 15364 docker-compose      
##  6 15363 docker-compose      
##  7 15278 Google Chrome Helper
##  8 15274 Google Chrome Helper
##  9 15048 Google Chrome Helper
## 10 15046 Google Chrome Helper
## # ... with 320 more rows

Processes consuming more than 100MB of memory:

ps() %>%
  filter(rss > 100 * 1024 * 1024)

## # A tibble: 21 x 11
##      pid  ppid name     username  status   user system    rss    vms created             ps_handle 
##    <int> <int> <chr>    <chr>     <chr>   <dbl>  <dbl>  <dbl>  <dbl> <dttm>              <I(list)> 
##  1 15618 15603 R        gaborcsa… running  1.67  0.459 1.27e8 2.70e9 2018-11-07 09:38:47 <S3: ps_h…
##  2 15603 69354 R        gaborcsa… running  1.82  0.230 1.21e8 2.69e9 2018-11-07 09:38:42 <S3: ps_h…
##  3 15274  9730 Google … gaborcsa… running 14.1   2.02  2.26e8 3.22e9 2018-11-07 09:33:43 <S3: ps_h…
##  4 15048  9730 Google … gaborcsa… running  1.93  0.328 1.25e8 3.06e9 2018-11-07 09:05:18 <S3: ps_h…
##  5 14908 14899 Slack H… gaborcsa… running 47.1   5.88  5.38e8 4.18e9 2018-11-07 08:07:41 <S3: ps_h…
##  6 14907 14899 Slack H… gaborcsa… running  9.06  2.02  1.35e8 3.63e9 2018-11-07 08:07:40 <S3: ps_h…
##  7 14905 14899 Slack H… gaborcsa… running  9.21  0.865 2.95e8 3.83e9 2018-11-07 08:07:40 <S3: ps_h…
##  8 14904 14899 Slack H… gaborcsa… running  8.11  0.761 3.01e8 3.83e9 2018-11-07 08:07:40 <S3: ps_h…
##  9 14903 14899 Slack H… gaborcsa… running 19.5   2.88  3.93e8 3.98e9 2018-11-07 08:07:40 <S3: ps_h…
## 10 14900 14899 Slack H… gaborcsa… running 12.8  13.3   3.45e8 3.38e9 2018-11-07 08:07:39 <S3: ps_h…
## # ... with 11 more rows
…
